{
    "geneSearch": [
        {
            "attachTo": "#header-genesearch-button",
            "title": "Step 1: Go to gene search page",
            "description": "Click GENE SEARCH button.",
            "position": 3,
            "overlay": true,
            "highlight": true,
            "xButton": true,
            "nextPage": "/ascc-dev/genes/search"
        }
    ]
}